^E:\DOCUMENTATIE\SMART GIT\TEMPLATES\TEMPLATES\TEMPLATES\EXERCITII.CPP
E:\DOCUMENTATIE\SMART GIT\TEMPLATES\TEMPLATES\TEMPLATES\DEBUG\VC141.PDB
E:\DOCUMENTATIE\SMART GIT\TEMPLATES\TEMPLATES\TEMPLATES\DEBUG\VC141.IDB
E:\DOCUMENTATIE\SMART GIT\TEMPLATES\TEMPLATES\TEMPLATES\DEBUG\EXERCITII.OBJ
